Index (Cleaned up work)
…
#Appendix D Species List
list(animal.data.final)

## [[1]]
## # A tibble: 26 x 2
##    species                  number_of_animals
##    <chr>                                <int>
##  1 Ammospermophilus nelsoni               132
##  2 Andrena nigripes                         4
##  3 Aspidoscelis tigris                      6
##  4 Buteo jamaicensis                        2
##  5 Calathus ruficollis                      8
##  6 Calypte anna                             2
##  7 Chondestes grammacus                    71
##  8 Corvus corax                             4
##  9 Crotalus oreganus                        1
## 10 Dasymutilla aureola                      1
## # ... with 16 more rows
…
